0	-0.12521563152947102	0.9170179324871754	-0.9815936329060325	273.12408393045007	149.03101350809465	1040.7055065144339	2.052	0.0008037	0.0001004	3.551e-07	3.032e-07	3.933e-05	4.14e-06	0.0006857	1.823e-05	7.711e-05	0.6961	0.3022	0.0	0.0	0.0	0.01945	0.07789	0.008747	3.095e-05	2.94e-05	0.003812	0.0	0.01677	0.0008867	0.001789	0.8226	0.06745	0.0	0.0	0.0	0.00171	0.1807	0.02011	7.116e-05	6.823e-05	0.008847	0.0	0.03489	0.001467	0.002435	0.6684	0.08301	0.0	0.0	0.0
1	1.4978585423947717	-0.33246120808799007	0.7449311721075125	810.0702363193841	565.0088084764283	1140.6370902623435	1.295	4.091e-05	6.149e-06	2.174e-08	1.541e-08	2.002e-06	0.1181	0.0002171	3.173e-07	1.476e-06	0.5914	0.2903	0.0	0.0	0.0	63.91	7.176e-05	1.034e-05	3.655e-08	2.705e-08	3.511e-06	0.1709	0.0004068	7.237e-08	3.721e-06	0.558	0.2706	0.0	0.0	0.0	45.12	8.799e-05	1.248e-05	4.414e-08	3.316e-08	4.305e-06	0.1873	0.0004972	7.198e-08	5.18e-06	0.5479	0.2642	0.0	0.0	0.0
2	0.48082297648837136	-0.774977314648633	0.10412641507512355	612.5425599651766	977.4495697498111	65.17845310872013	48.09	7.367e-05	1.059e-05	3.744e-08	2.776e-08	3.604e-06	0.1732	0.0004178	6.769e-08	3.884e-06	0.5565	0.2697	0.0	0.0	0.0	29.07	5.38e-05	7.92e-06	2.801e-08	2.027e-08	2.632e-06	0.1439	0.0002985	1.775e-07	2.311e-06	0.575	0.2808	0.0	0.0	0.0	208.9	2.771e-05	4.288e-06	1.516e-08	1.044e-08	1.356e-06	0.08589	0.0001344	5.066e-07	8.281e-07	0.6119	0.302	0.0	0.0	0.0
3	0.5015221149645721	-0.6961336875788631	-0.05773218106863354	378.2355211047655	268.115907778317	1228.0218023781633	9.882	0.000271	3.59e-05	1.27e-07	1.022e-07	1.326e-05	0.1099	0.0009645	4.158e-06	2.558e-05	0.6077	0.2811	0.0	0.0	0.0	2.632	0.0005092	6.534e-05	2.311e-07	1.921e-07	2.492e-05	0.000213	0.0007148	1.126e-05	5.088e-05	0.6892	0.3092	0.0	0.0	0.0	1.488	0.0008538	0.0001063	3.76e-07	3.221e-07	4.178e-05	1.502e-06	0.0006895	1.939e-05	8.122e-05	0.697	0.3012	0.0	0.0	0.0
4	1.2012890387981434	0.2977433738252624	0.07355027905562106	997.1524066383046	661.5185761117697	1659.0454154673014	59.69	2.659e-05	4.127e-06	1.459e-08	1.001e-08	1.301e-06	0.08288	0.0001275	5.244e-07	7.847e-07	0.6139	0.3031	0.0	0.0	0.0	413.2	2.781e-05	4.302e-06	1.521e-08	1.048e-08	1.361e-06	0.08616	0.000135	5.05e-07	8.321e-07	0.6118	0.3019	0.0	0.0	0.0	0.2079	6.249e-05	9.095e-06	3.216e-08	2.355e-08	3.057e-06	0.1582	0.000352	1.13e-07	2.961e-06	0.5659	0.2754	0.0	0.0	0.0
5	-1.4203494562315948	-0.22209545647699502	0.2029358239314556	63.49561384540168	396.49237495019213	1116.4632333060613	3.537e-05	0.8481	0.07912	0.0002811	0.0003215	0.04167	0.0	0.02983	0.0005503	0.0	0.0001037	3.127e-05	0.0	0.0	0.0	0.001367	0.8565	0.07698	0.000274	0.0003255	0.0422	0.0	0.02332	0.0003798	0.0	3.251e-05	1.017e-05	0.0	0.0	0.0	1.062	0.0001614	2.155e-05	7.622e-08	6.084e-08	7.895e-06	0.105	0.0006565	1.97e-06	1.457e-05	0.4108	0.1912	0.02746	0.005537	0.2591
7	0.2582476760550836	-1.1264432370518351	-0.5300061041495656	365.90172084985755	542.9351922473558	330.95821636703215	3.215	0.0003092	4.072e-05	1.44e-07	1.166e-07	1.513e-05	0.07372	0.0009693	5.474e-06	3e-05	0.6334	0.2915	0.0	0.0	0.0	30.51	0.0001094	1.528e-05	5.404e-08	4.125e-08	5.355e-06	0.1988	0.0006028	2.033e-07	7.299e-06	0.5413	0.2591	0.0	0.0	0.0	32.28	9.631e-05	1.357e-05	4.799e-08	3.63e-08	4.712e-06	0.193	0.0005401	1.058e-07	5.98e-06	0.5445	0.2618	0.0	0.0	0.0
8	-0.9948499068933504	-1.2694123820661873	-0.4044494001557213	90.94498214952996	800.381674367262	1226.139930020905	5.967e-05	0.8169	0.08235	0.0002919	0.0003088	0.04003	0.0	0.05614	0.001273	0.0	0.002293	0.0004427	0.0	0.0	0.0	2.281	0.0006673	8.425e-05	2.98e-07	2.517e-07	3.265e-05	2.907e-05	0.0006806	1.503e-05	6.54e-05	0.6908	0.3041	0.003537	0.0	0.0	177.6	4.066e-05	6.099e-06	2.157e-08	1.532e-08	1.989e-06	0.1166	0.0002168	2.949e-07	1.49e-06	0.5718	0.2806	0.002357	0.006634	0.02178
10	-0.5314954353062651	-1.2307959108501119	0.698307956351953	657.4952137375554	569.2152553114173	1923.923276738387	12.23	6.33e-05	9.204e-06	3.255e-08	2.386e-08	3.097e-06	0.1594	0.0003569	1.083e-07	3.026e-06	0.5652	0.275	0.0	0.0	0.0	84.42	8.291e-05	1.181e-05	4.177e-08	3.125e-08	4.057e-06	0.1829	0.0004696	6.252e-08	4.708e-06	0.5506	0.2659	0.0	0.0	0.0	8.443	8.654e-05	1.229e-05	4.346e-08	3.262e-08	4.234e-06	0.1861	0.0004894	6.841e-08	5.044e-06	0.5486	0.2646	0.0	0.0	0.0
11	0.3926128301815701	0.8440474134046467	-1.0662890277644925	658.6315151292898	568.1287954003263	1911.461344944572	56.07	6.307e-05	9.173e-06	3.244e-08	2.377e-08	3.086e-06	0.1591	0.0003555	1.096e-07	3.007e-06	0.5654	0.2751	0.0	0.0	0.0	13.76	0.0001005	1.412e-05	4.995e-08	3.79e-08	4.92e-06	0.1953	0.000561	1.315e-07	6.399e-06	0.5432	0.2608	0.0	0.0	0.0	42.66	8.691e-05	1.234e-05	4.363e-08	3.276e-08	4.253e-06	0.1864	0.0004914	6.925e-08	5.079e-06	0.5485	0.2645	0.0	0.0	0.0
12	-0.24077831406164085	-1.0848397460215087	0.5085310701803909	39.51168807585471	586.3583127246358	824.5023310619691	0.0002292	0.8664	0.07259	0.0002598	0.0003324	0.04312	0.0	0.01709	0.0001943	0.0	4.209e-06	1.365e-06	0.0	0.0	0.0	0.001825	0.4935	0.05246	0.0001858	0.0001864	0.02416	0.0	0.05781	0.001601	0.0006709	0.08078	0.008808	0.2798	0.0	0.0	46.68	7.33e-05	1.046e-05	3.699e-08	2.763e-08	3.586e-06	0.1639	0.0004154	5.536e-08	4.104e-06	0.499	0.2412	0.0001809	0.07868	0.01661
13	-1.116840850968001	1.0875768158955985	0.6846930091063306	972.8352138707475	437.25745057279244	758.3263610475999	24.07	2.249e-05	3.477e-06	1.23e-08	8.471e-09	1.1e-06	0.0696	0.0001094	4.036e-07	6.742e-07	0.4913	0.2425	0.0001817	0.09779	0.09848	11.49	0.0001279	1.767e-05	6.249e-08	4.822e-08	6.259e-06	0.2013	0.0006805	4.24e-07	9.244e-06	0.5405	0.2573	0.0	0.0	0.0	30.17	0.000167	2.269e-05	8.024e-08	6.296e-08	8.172e-06	0.1905	0.0008085	1.154e-06	1.358e-05	0.5495	0.2589	0.0	0.0	0.0
15	-0.654624438467113	-0.09843308120913674	0.06768221884615166	136.19002402517017	691.6495593645411	1745.3180476727064	0.004042	0.3976	0.04347	0.0001539	0.0001501	0.01946	0.0	0.06317	0.002131	0.00236	0.4139	0.05762	0.0	0.0	0.0	0.002508	0.3872	0.04238	0.00015	0.0001462	0.01896	0.0	0.06208	0.00211	0.002387	0.4253	0.05929	0.0	0.0	0.0	0.3194	4.101e-05	6.012e-06	2.126e-08	1.545e-08	2.007e-06	0.1076	0.000229	1.094e-07	1.827e-06	0.4121	0.201	0.05516	0.2196	0.004264
16	0.8086405683547166	-0.23944915752697482	0.3426014794674821	756.5354284862236	436.1597029075273	229.8388893989955	100.6	4.716e-05	7.012e-06	2.48e-08	1.777e-08	2.307e-06	0.1312	0.0002567	2.433e-07	1.859e-06	0.583	0.2855	0.0	0.0	0.0	106.9	4.097e-05	6.157e-06	2.177e-08	1.544e-08	2.004e-06	0.1182	0.0002175	3.166e-07	1.48e-06	0.5913	0.2903	0.0	0.0	0.0	6.242	0.0001682	2.285e-05	8.079e-08	6.343e-08	8.232e-06	0.1899	0.0008118	1.182e-06	1.372e-05	0.55	0.2591	0.0	0.0	0.0
17	1.4913125175284274	0.7299622660841529	1.3767032369402719	16.83453319664646	10.222098868206608	1896.1496468699854	1.752e-06	0.8398	0.0651	0.0002464	0.0003997	0.05209	0.0	0.04238	3.35e-05	0.0	2.106e-08	7.036e-09	0.0	0.0	0.0	2.651e-06	0.0	0.3486	0.001551	0.003065	0.3982	0.0	0.2485	5.53e-05	0.0	3.99e-09	1.338e-09	0.0	0.0	0.0	8.593e-05	0.4396	0.1904	0.0008161	0.001565	0.2037	0.0	0.1639	3.32e-05	0.0	3.439e-09	1.153e-09	0.0	0.0	0.0
20	-0.7315045369953295	1.423997167267915	1.2913081173688798	137.38973014037248	250.87286212573528	659.0801659656078	8.188e-05	0.3757	0.04115	0.0001457	0.0001419	0.01839	0.0	0.06084	0.002086	0.002415	0.438	0.06112	0.0	0.0	0.0	1.226	0.0009668	0.0001195	4.228e-07	3.647e-07	4.731e-05	2.175e-09	0.0007011	2.198e-05	9.014e-05	0.6991	0.299	0.0	0.0	0.0	2.829	0.001067	0.0001312	4.641e-07	4.026e-07	5.222e-05	0.0	0.0007138	2.424e-05	9.77e-05	0.7009	0.2971	0.0	0.0	0.0
24	0.6612936588692349	0.8966501375009006	0.009382217599752218	279.95908198035056	679.7855081734635	1573.8917646343448	1.511	0.0007422	9.315e-05	3.295e-07	2.8e-07	3.632e-05	1.105e-05	0.0006828	1.679e-05	7.194e-05	0.6948	0.3035	0.0	0.0	0.0	10.67	0.0002228	2.979e-05	1.054e-07	8.4e-08	1.09e-05	0.1526	0.0009204	2.629e-06	1.999e-05	0.5772	0.2689	0.0	0.0	0.0	62.99	5.706e-05	8.341e-06	2.95e-08	2.15e-08	2.792e-06	0.1477	0.0003198	1.315e-07	2.604e-06	0.5507	0.2684	0.02732	0.005416	0.0
25	0.08149762790908333	-0.9058016199214539	-1.102198034463003	711.6487173137207	92.43818622991252	1017.3800551196457	79.86	4.743e-05	6.984e-06	2.47e-08	1.787e-08	2.32e-06	0.127	0.000263	1.589e-07	2.031e-06	0.5092	0.2487	0.08813	0.024	0.002699	0.001332	0.8043	0.0823	0.0002916	0.000304	0.0394	0.0	0.06386	0.001515	2.069e-05	0.007157	0.0008444	0.0	0.0	0.0	0.0001839	0.8145	0.0824	0.000292	0.0003079	0.03991	0.0	0.05783	0.001324	1.736e-07	0.002913	0.0005076	0.0	0.0	0.0
27	-0.1105033448692645	-0.5760999377273549	1.5266653290319652	820.6157885358316	457.99388140711613	541.4681813578835	202.3	3.877e-05	5.839e-06	2.065e-08	1.461e-08	1.897e-06	0.1126	0.0002047	3.225e-07	1.377e-06	0.5771	0.2834	0.02505	0.001609	0.0	0.1269	0.007347	0.0008404	2.974e-06	2.773e-06	0.0003596	0.0	0.001972	0.0001409	0.0003804	0.9606	0.02833	0.0	0.0	0.0	0.3618	0.0001426	1.953e-05	6.906e-08	5.376e-08	6.978e-06	0.193	0.0007271	7.144e-07	1.098e-05	0.5284	0.2502	0.0	0.0	0.02755
28	-1.3412423269553377	1.2636629726074378	0.4156880581949678	910.5742785585337	738.7917343717793	1281.4900656797615	1.817	3.21e-05	4.914e-06	1.738e-08	1.209e-08	1.571e-06	0.09723	0.0001616	4.386e-07	1.017e-06	0.6047	0.2979	0.0	0.0	0.0	137.5	4.879e-05	7.235e-06	2.559e-08	1.838e-08	2.387e-06	0.1345	0.000267	2.259e-07	1.966e-06	0.5809	0.2843	0.0	0.0	0.0	73.0	4.955e-05	7.34e-06	2.596e-08	1.867e-08	2.424e-06	0.136	0.0002718	2.18e-07	2.017e-06	0.58	0.2837	0.0	0.0	0.0
29	0.8813765717394011	-0.085663704115432	0.5833018626035491	364.85070444746265	691.7662073621445	374.91983816989267	7.371	0.0003129	4.119e-05	1.457e-07	1.18e-07	1.531e-05	0.07023	0.0009684	5.604e-06	3.042e-05	0.6359	0.2925	0.0	0.0	0.0	4.027	0.0004845	6.236e-05	2.206e-07	1.827e-07	2.371e-05	0.000301	0.0007283	1.067e-05	4.85e-05	0.6885	0.3099	0.0	0.0	0.0	39.93	5.419e-05	7.944e-06	2.809e-08	2.042e-08	2.652e-06	0.1422	0.0003026	1.448e-07	2.414e-06	0.5448	0.2657	0.0	0.03501	0.01193
30	-0.745117279160102	0.4061784073306627	0.6273335731206555	184.22209953353862	404.3013727732321	1661.1310944365532	0.3443	0.00436	0.0005051	1.787e-06	1.646e-06	0.0002134	0.0	0.001353	8.853e-05	0.0002656	0.8558	0.1374	0.0	0.0	0.0	0.005584	0.0742	0.008336	2.95e-05	2.801e-05	0.003632	0.0	0.01604	0.0008592	0.001746	0.8293	0.06585	0.0	0.0	0.0	13.23	0.0001893	2.538e-05	8.974e-08	7.139e-08	9.265e-06	0.1423	0.0008048	2.087e-06	1.677e-05	0.5077	0.237	0.06101	0.04056	0.01039
31	1.25629385710122	1.448163709507651	-0.420479773850293	842.2182884834339	189.81207316588834	1376.913850061945	0.6238	2.649e-05	4.006e-06	1.417e-08	9.98e-09	1.296e-06	0.07782	0.0001383	2.521e-07	9.121e-07	0.4183	0.2056	0.1422	0.03339	0.1224	0.5565	0.003355	0.0003914	1.385e-06	1.266e-06	0.0001642	0.0	0.001127	6.983e-05	0.0002196	0.7791	0.2156	0.0	0.0	0.0	0.437	0.003449	0.0004019	1.422e-06	1.302e-06	0.0001688	0.0	0.001147	7.157e-05	0.0002238	0.7851	0.2095	0.0	0.0	0.0
32	0.8160219526435566	1.0403387814218172	-1.1353670386398436	637.7300368853317	593.6530661158725	1676.7377260621024	16.24	6.755e-05	9.774e-06	3.456e-08	2.546e-08	3.305e-06	0.1655	0.0003823	8.719e-08	3.369e-06	0.5614	0.2727	0.0	0.0	0.0	5.02	8.647e-05	1.228e-05	4.343e-08	3.259e-08	4.231e-06	0.186	0.000489	6.824e-08	5.037e-06	0.5487	0.2647	0.0	0.0	0.0	90.26	7.887e-05	1.128e-05	3.988e-08	2.972e-08	3.859e-06	0.179	0.0004472	6.118e-08	4.341e-06	0.553	0.2675	0.0	0.0	0.0
34	-0.7941378882850024	0.5177460384767936	1.2219845582555648	980.4699632965021	977.1701331561708	626.0643808929865	176.8	2.754e-05	4.263e-06	1.507e-08	1.037e-08	1.347e-06	0.08542	0.0001333	5.094e-07	8.212e-07	0.6122	0.3022	0.0	0.0	0.0	2.954	2.929e-05	4.513e-06	1.596e-08	1.103e-08	1.433e-06	0.09003	0.0001441	4.821e-07	8.923e-07	0.6093	0.3005	0.0	0.0	0.0	293.7	2.773e-05	4.29e-06	1.517e-08	1.044e-08	1.357e-06	0.08593	0.0001345	5.064e-07	8.288e-07	0.6119	0.302	0.0	0.0	0.0
36	0.8331771120060152	0.35761330916415646	-0.21984161145086234	574.7002622539751	405.7239964713883	1502.7524777351252	39.22	8.471e-05	1.205e-05	4.261e-08	3.193e-08	4.145e-06	0.1846	0.0004795	6.49e-08	4.874e-06	0.5496	0.2653	0.0	0.0	0.0	39.1	9.307e-05	1.315e-05	4.649e-08	3.508e-08	4.554e-06	0.191	0.0005238	8.996e-08	5.665e-06	0.5457	0.2626	0.0	0.0	0.0	4.551	0.0002107	2.826e-05	9.994e-08	7.945e-08	1.031e-05	0.1622	0.0009023	2.279e-06	1.859e-05	0.5703	0.2663	0.0	0.0	0.0
37	-1.4708834815891487	0.43313858052174714	0.7419323876348263	24.101789888354197	240.89382083891672	231.86140308169627	6.012e-06	0.8654	0.06588	0.0002407	0.0003511	0.04565	0.0	0.02239	6.836e-05	0.0	1.823e-07	6.05e-08	0.0	0.0	0.0	0.0005803	0.8651	0.0734	0.0002624	0.0003311	0.04294	0.0	0.01778	0.0002192	0.0	6.061e-06	1.957e-06	0.0	0.0	0.0	1.917	0.001055	0.0001287	4.552e-07	3.979e-07	5.161e-05	0.0	0.0006324	2.388e-05	9.373e-05	0.6039	0.2523	0.07014	0.008704	0.06301
40	-1.1135958035817621	-1.5693300571535833	0.9478670396649438	538.7155941908184	455.6434798111458	240.784467554085	3.389e-05	9.805e-05	1.38e-05	4.88e-08	3.696e-08	4.798e-06	0.194	0.0005488	1.157e-07	6.152e-06	0.544	0.2614	0.0	0.0	0.0	36.1	0.0001487	2.035e-05	7.195e-08	5.607e-08	7.277e-06	0.1978	0.0007544	7.736e-07	1.152e-05	0.5438	0.2574	0.0	0.0	0.0	10.3	0.0001487	2.035e-05	7.195e-08	5.607e-08	7.277e-06	0.1978	0.0007544	7.736e-07	1.152e-05	0.5438	0.2574	0.0	0.0	0.0
41	1.3719371583651352	0.8236906502476313	0.047990229565229026	23.52849303649004	561.084464253679	1722.5679434767262	1.293e-05	0.8646	0.06563	0.0002402	0.0003528	0.04587	0.0	0.02328	6.505e-05	0.0	1.57e-07	5.214e-08	0.0	0.0	0.0	0.0008984	0.8693	0.06932	0.0002498	0.0003388	0.04398	0.0	0.01666	0.00012	0.0	9.825e-07	3.231e-07	0.0	0.0	0.0	1.466	5.347e-05	7.575e-06	2.679e-08	2.015e-08	2.616e-06	0.1127	0.0003018	4.55e-08	3.177e-06	0.3274	0.1578	0.2112	1.918e-05	0.1906
42	0.7965031618809917	-0.632140543479645	-0.4770313249899405	677.6443461608989	523.5337158271902	696.9264618851165	51.49	5.939e-05	8.677e-06	3.068e-08	2.238e-08	2.906e-06	0.1534	0.0003331	1.332e-07	2.722e-06	0.569	0.2773	0.0	0.0	0.0	102.2	6.264e-05	9.115e-06	3.223e-08	2.361e-08	3.065e-06	0.1584	0.0003529	1.121e-07	2.973e-06	0.5658	0.2754	0.0	0.0	0.0	0.1111	0.0001048	1.468e-05	5.191e-08	3.95e-08	5.128e-06	0.1972	0.0005814	1.629e-07	6.827e-06	0.5422	0.2599	0.0	0.0	0.0
43	0.9757925516631816	-0.6039877142202981	0.90938402583481	118.6160298836262	551.5798529994978	1279.5976109382877	0.0007243	0.6777	0.07212	0.0002554	0.000256	0.03318	0.0	0.08033	0.002238	0.000986	0.1197	0.01324	0.0	0.0	0.0	0.0001525	0.8158	0.08238	0.0002919	0.0003084	0.03997	0.0	0.05695	0.001298	1.116e-08	0.002569	0.0004729	0.0	0.0	0.0	64.18	9.086e-05	1.284e-05	4.54e-08	3.425e-08	4.446e-06	0.1867	0.0005114	8.725e-08	5.525e-06	0.5339	0.2569	0.01171	0.009756	0.0004235
44	-1.304186299109873	-0.09722802033835798	-0.9078249608383782	303.46998096829714	599.281540083296	1276.7597752639886	0.5885	0.0005768	7.346e-05	2.598e-07	2.175e-07	2.822e-05	9.057e-05	0.0006932	1.288e-05	5.723e-05	0.691	0.3074	0.0	0.0	0.0	1.019	0.001302	0.0001584	5.604e-07	4.914e-07	6.374e-05	0.0	0.0007481	2.943e-05	0.0001142	0.705	0.2926	0.0	0.0	0.0	71.09	7.345e-05	1.052e-05	3.72e-08	2.768e-08	3.594e-06	0.1685	0.0004165	5.917e-08	3.991e-06	0.5267	0.2549	0.0	0.01132	0.03799
45	0.49963456391195704	-1.5344239275056712	0.8121138162824026	652.3093851707237	684.5204356035841	815.3914255458399	0.1473	6.438e-05	9.348e-06	3.306e-08	2.426e-08	3.15e-06	0.161	0.0003634	1.024e-07	3.111e-06	0.5642	0.2744	0.0	0.0	0.0	15.72	5.812e-05	8.506e-06	3.008e-08	2.19e-08	2.844e-06	0.1513	0.0003253	1.423e-07	2.627e-06	0.5703	0.278	0.0	0.0	0.0	150.8	5.814e-05	8.508e-06	3.009e-08	2.191e-08	2.844e-06	0.1513	0.0003254	1.422e-07	2.627e-06	0.5703	0.278	0.0	0.0	0.0
46	-0.9205558141040372	-1.0963014219999134	-0.23007184164742567	31.927449702269467	625.1999670304064	173.04961034152927	7.147e-05	0.8693	0.0695	0.0002504	0.0003383	0.04392	0.0	0.01657	0.0001234	0.0	1.069e-06	3.514e-07	0.0	0.0	0.0	0.001115	0.5786	0.05517	0.0001958	0.0002191	0.0284	0.0	0.02417	0.0004736	0.0	0.0001467	4.277e-05	0.3126	0.0	0.0	87.47	5.116e-05	7.377e-06	2.609e-08	1.928e-08	2.503e-06	0.1229	0.0002899	5.531e-08	2.622e-06	0.4057	0.1968	0.2011	0.06434	0.008811
48	-1.0993830583827315	-1.460240495344439	-0.09802217053533946	913.7906063854427	817.5376070248949	280.2939562666928	0.974	3.187e-05	4.88e-06	1.726e-08	1.2e-08	1.559e-06	0.09665	0.0001601	4.417e-07	1.006e-06	0.605	0.2981	0.0	0.0	0.0	199.6	4.005e-05	6.029e-06	2.132e-08	1.509e-08	1.96e-06	0.1161	0.0002117	3.284e-07	1.427e-06	0.5926	0.291	0.0	0.0	0.0	80.67	4.014e-05	6.042e-06	2.137e-08	1.512e-08	1.964e-06	0.1163	0.0002123	3.272e-07	1.432e-06	0.5925	0.2909	0.0	0.0	0.0
49	-0.45201718432428417	1.3181001241791295	0.49686021852660023	942.8823205017172	917.2042697447766	812.116434407233	21.5	2.986e-05	4.595e-06	1.625e-08	1.125e-08	1.461e-06	0.09153	0.0001477	4.732e-07	9.168e-07	0.6083	0.3	0.0	0.0	0.0	0.3595	3.302e-05	5.044e-06	1.784e-08	1.244e-08	1.616e-06	0.09953	0.0001673	4.258e-07	1.06e-06	0.6032	0.2971	0.0	0.0	0.0	372.0	3.162e-05	4.846e-06	1.714e-08	1.191e-08	1.547e-06	0.09603	0.0001586	4.45e-07	9.947e-07	0.6054	0.2983	0.0	0.0	0.0
50	-1.0086807710221466	-1.0628536027254047	1.2653261950214651	577.4556356480455	548.1551473722054	1125.4447851713255	6.738	8.382e-05	1.193e-05	4.219e-08	3.159e-08	4.101e-06	0.1838	0.0004746	6.358e-08	4.791e-06	0.5501	0.2656	0.0	0.0	0.0	39.94	9.722e-05	1.369e-05	4.841e-08	3.664e-08	4.757e-06	0.1935	0.0005447	1.108e-07	6.07e-06	0.5442	0.2616	0.0	0.0	0.0	37.99	9.422e-05	1.33e-05	4.703e-08	3.551e-08	4.61e-06	0.1917	0.0005296	9.52e-08	5.777e-06	0.5453	0.2623	0.0	0.0	0.0
54	0.4510229685777052	1.350308730684445	0.755755778771491	480.1678068862533	380.607386194047	1639.0840897252976	2.156	0.0001295	1.788e-05	6.321e-08	4.882e-08	6.336e-06	0.2013	0.0006866	4.472e-07	9.416e-06	0.5406	0.2572	0.0	0.0	0.0	19.94	0.0002543	3.378e-05	1.195e-07	9.588e-08	1.244e-05	0.1253	0.0009542	3.608e-06	2.364e-05	0.5968	0.2767	0.0	0.0	0.0	2.601	0.0002646	3.509e-05	1.241e-07	9.976e-08	1.295e-05	0.1158	0.0009611	3.945e-06	2.484e-05	0.6035	0.2794	0.0	0.0	0.0
56	-1.3471635244260298	0.6464579626906679	1.027967338693498	56.35120114876126	971.604757113831	178.43321793550612	4.687e-05	0.8544	0.07761	0.0002761	0.0003244	0.04205	0.0	0.02488	0.0004214	0.0	4.487e-05	1.392e-05	0.0	0.0	0.0	0.0002877	0.8373	0.08087	0.0002869	0.0003169	0.04108	0.0	0.03896	0.0007889	0.0	0.0003341	9.469e-05	0.0	0.0	0.0	383.1	2.778e-05	4.294e-06	1.518e-08	1.046e-08	1.359e-06	0.08594	0.0001352	4.961e-07	8.335e-07	0.6052	0.2986	0.005888	0.004161	1.044e-05
58	-1.1805565827073865	1.04112831432397	0.42725317709888966	42.604619384503984	659.0188693589213	762.0631718714834	4.38e-05	0.8645	0.07368	0.0002633	0.0003306	0.04288	0.0	0.01806	0.0002286	0.0	6.882e-06	2.218e-06	0.0	0.0	0.0	0.001921	0.5106	0.05221	0.000185	0.000193	0.02501	0.0	0.04027	0.0009532	1.134e-05	0.004293	0.0005178	0.3658	0.0	0.0	74.72	5.844e-05	8.5e-06	3.006e-08	2.202e-08	2.859e-06	0.1475	0.0003294	1.021e-07	2.784e-06	0.5246	0.2553	0.01393	0.01721	0.04112
60	-0.8502969213524092	0.7943409715108318	0.2630373105375594	449.88581300976745	555.0636275988678	898.9340784573405	9.475	0.000154	2.103e-05	7.436e-08	5.807e-08	7.536e-06	0.1961	0.0007711	8.776e-07	1.212e-05	0.5453	0.2577	0.0	0.0	0.0	22.01	0.0001216	1.686e-05	5.962e-08	4.585e-08	5.951e-06	0.2012	0.0006554	3.388e-07	8.573e-06	0.5404	0.2577	0.0	0.0	0.0	37.5	9.158e-05	1.295e-05	4.58e-08	3.452e-08	4.481e-06	0.19	0.0005161	8.381e-08	5.522e-06	0.5463	0.2631	0.0	0.0	0.0
62	-0.22833860563949404	0.5567909648483882	0.36376271530463056	77.07428008611814	994.232217071648	445.450571374874	0.001645	0.6798	0.06617	0.0002347	0.0002572	0.03334	0.0	0.03385	0.0006992	0.0	0.0003618	0.0001004	0.1852	0.0	0.0	7.529e-07	0.8693	0.06949	0.0002503	0.0003384	0.04393	0.0	0.01658	0.0001231	0.0	1.061e-06	3.486e-07	0.0	0.0	0.0	188.8	2.218e-05	3.442e-06	1.217e-08	8.356e-09	1.085e-06	0.0691	0.0001066	4.328e-07	6.559e-07	0.5088	0.2512	0.1561	0.0001789	0.0144
63	-1.3400771688172357	-0.3594197053513575	-1.2343523559836522	654.9063530523312	763.705801357128	1158.34505113368	6.704	6.384e-05	9.275e-06	3.28e-08	2.406e-08	3.123e-06	0.1602	0.0003601	1.053e-07	3.068e-06	0.5647	0.2747	0.0	0.0	0.0	6.213	8.214e-05	1.171e-05	4.141e-08	3.096e-08	4.019e-06	0.1822	0.0004653	6.183e-08	4.637e-06	0.551	0.2662	0.0	0.0	0.0	205.4	4.624e-05	6.886e-06	2.435e-08	1.742e-08	2.262e-06	0.1294	0.0002509	2.535e-07	1.8e-06	0.5842	0.2861	0.0	0.0	0.0
64	-0.5356667666784163	0.3592733832045054	0.9954767986642388	371.3111754938385	860.0346406130545	224.64826075601582	14.55	0.0002595	3.426e-05	1.212e-07	9.784e-08	1.27e-05	0.08075	0.0008641	4.32e-06	2.488e-05	0.5533	0.2552	0.1095	0.0	0.0	1.18e-06	0.8303	0.0816	0.0002894	0.0003141	0.04071	0.0	0.045	0.0009526	0.0	0.0006396	0.0001713	0.0	0.0	0.0	197.6	2.088e-05	3.168e-06	1.12e-08	7.866e-09	1.022e-06	0.06188	0.000108	2.202e-07	7.019e-07	0.3458	0.1701	0.1901	3.374e-05	0.2321
65	1.2914591842158085	1.2868982083999265	0.10284662932690702	576.6694859440092	682.633567136906	1456.6292871716812	0.5956	8.407e-05	1.197e-05	4.231e-08	3.169e-08	4.114e-06	0.184	0.000476	6.393e-08	4.815e-06	0.5499	0.2655	0.0	0.0	0.0	149.4	6.14e-05	8.948e-06	3.164e-08	2.314e-08	3.004e-06	0.1565	0.0003454	1.198e-07	2.876e-06	0.567	0.2761	0.0	0.0	0.0	4.48	5.848e-05	8.554e-06	3.025e-08	2.204e-08	2.861e-06	0.1519	0.0003275	1.397e-07	2.653e-06	0.5699	0.2778	0.0	0.0	0.0
66	0.2134814861932568	-0.5716146376269153	0.04560505386308322	595.6093979354205	731.3380409121911	1465.3859446801416	74.42	7.83e-05	1.12e-05	3.962e-08	2.951e-08	3.831e-06	0.1784	0.000444	6.145e-08	4.291e-06	0.5534	0.2677	0.0	0.0	0.0	4.313	7.247e-05	1.043e-05	3.688e-08	2.731e-08	3.546e-06	0.1718	0.0004109	7.049e-08	3.781e-06	0.5574	0.2703	0.0	0.0	0.0	58.56	5.061e-05	7.485e-06	2.647e-08	1.907e-08	2.476e-06	0.138	0.0002785	2.074e-07	2.088e-06	0.5787	0.283	0.0	0.0	0.0
67	-0.5565472107440341	-0.47406889420284015	0.8465982987154792	301.6274031974712	595.690999538066	1230.9621062257854	4.77	0.0005876	7.476e-05	2.644e-07	2.216e-07	2.875e-05	7.938e-05	0.0006912	1.314e-05	5.823e-05	0.6913	0.3071	0.0	0.0	0.0	1.916	0.0009338	0.0001157	4.092e-07	3.523e-07	4.57e-05	9.193e-08	0.0006974	2.123e-05	8.759e-05	0.6985	0.2996	0.0	0.0	0.0	2.496	6.665e-05	9.536e-06	3.372e-08	2.512e-08	3.261e-06	0.1519	0.0003779	5.233e-08	3.651e-06	0.4711	0.2279	0.0	0.02746	0.1211
68	-1.4706493713774877	0.8096075817896691	1.01800110750737	167.60251998519072	284.70094410768775	700.9948804134484	0.001426	0.01018	0.001157	4.096e-06	3.842e-06	0.0004981	0.0	0.002546	0.0001885	0.0004781	0.9622	0.02275	0.0	0.0	0.0	0.8368	0.001071	0.0001317	4.659e-07	4.042e-07	5.243e-05	0.0	0.0007144	2.434e-05	9.802e-05	0.7009	0.297	0.0	0.0	0.0	5.213	0.0007036	8.857e-05	3.133e-07	2.654e-07	3.443e-05	1.884e-05	0.0006823	1.589e-05	6.861e-05	0.694	0.3044	0.0	0.0	0.0
69	-0.9210132996775622	0.22791121619239152	0.8035418182779543	329.64888391595605	455.1068251002227	1769.3518143926926	4.078	0.0004499	5.817e-05	2.057e-07	1.697e-07	2.202e-05	0.0005217	0.0007564	9.848e-06	4.512e-05	0.6873	0.3108	0.0	0.0	0.0	1.269	0.0007497	9.403e-05	3.326e-07	2.828e-07	3.668e-05	9.914e-06	0.000683	1.697e-05	7.257e-05	0.695	0.3033	0.0	0.0	0.0	20.62	0.0001492	2.041e-05	7.217e-08	5.625e-08	7.3e-06	0.1977	0.000756	7.828e-07	1.158e-05	0.544	0.2574	0.0	0.0	0.0
70	-0.978152185252163	-0.8456374803384564	0.3101614561144892	489.7067565415017	905.6161470830568	1669.7458433959077	8.16	0.0001232	1.707e-05	6.035e-08	4.645e-08	6.029e-06	0.2013	0.0006619	3.593e-07	8.742e-06	0.5404	0.2576	0.0	0.0	0.0	78.92	8.802e-05	1.248e-05	4.415e-08	3.317e-08	4.307e-06	0.1873	0.0004973	7.206e-08	5.183e-06	0.5479	0.2642	0.0	0.0	0.0	7.936	3.247e-05	4.965e-06	1.756e-08	1.223e-08	1.588e-06	0.09815	0.0001639	4.337e-07	1.034e-06	0.6041	0.2976	0.0	0.0	0.0
71	1.1554624178458468	-0.24427988979307003	-0.5860483411286745	47.206445790679	785.023892781401	1119.2115346247645	0.0001978	0.8614	0.07516	0.000268	0.0003283	0.04258	0.0	0.01994	0.0002855	0.0	1.354e-05	4.319e-06	0.0	0.0	0.0	0.0006475	0.869	0.07018	0.0002524	0.0003369	0.04372	0.0	0.01636	0.0001364	0.0	1.447e-06	4.744e-07	0.0	0.0	0.0	54.35	3.61e-05	5.4e-06	1.909e-08	1.36e-08	1.766e-06	0.1025	0.000194	2.342e-07	1.356e-06	0.4858	0.2382	0.0001447	0.07913	0.09401
73	-1.1693962838744276	-0.6808864544991435	0.7000556952438819	162.62797556445298	126.16158595884264	966.4497669996007	0.01455	0.01886	0.002133	7.549e-06	7.121e-06	0.0009233	0.0	0.004413	0.0003365	0.0007959	0.9455	0.02704	0.0	0.0	0.0	0.001548	0.8282	0.08177	0.00029	0.0003132	0.0406	0.0	0.04684	0.001004	0.0	0.0007726	0.0002023	0.0	0.0	0.0	0.0006933	0.5733	0.06176	0.0002186	0.0002165	0.02807	0.0	0.07739	0.002319	0.001641	0.2263	0.02878	0.0	0.0	0.0
75	-0.40174311988658507	0.38020395343866675	0.16161412361404537	503.03329621957505	605.9677409422633	1370.9551169550175	47.45	0.0001153	1.604e-05	5.673e-08	4.347e-08	5.642e-06	0.2003	0.0006288	2.635e-07	7.909e-06	0.5406	0.2583	0.0	0.0	0.0	7.093	0.0001156	1.608e-05	5.686e-08	4.357e-08	5.656e-06	0.2004	0.00063	2.665e-07	7.937e-06	0.5406	0.2583	0.0	0.0	0.0	18.57	7.541e-05	1.082e-05	3.826e-08	2.842e-08	3.69e-06	0.1752	0.0004277	6.454e-08	4.036e-06	0.5553	0.2689	0.0	0.0	0.0
76	-0.321641247377064	-1.1779151802825525	0.7200886265247051	322.8967205356404	852.2627522240134	413.34411587663294	1.432	0.0004784	6.161e-05	2.179e-07	1.804e-07	2.341e-05	0.0003298	0.0007324	1.053e-05	4.79e-05	0.6883	0.31	0.0	0.0	0.0	104.2	6.08e-05	8.868e-06	3.136e-08	2.291e-08	2.975e-06	0.1556	0.0003417	1.235e-07	2.831e-06	0.5675	0.2764	0.0001511	0.0	0.0	64.26	3.679e-05	5.574e-06	1.971e-08	1.386e-08	1.8e-06	0.1086	0.0001911	3.714e-07	1.25e-06	0.5969	0.2935	0.0007905	0.0	0.0
77	-0.4409854735825942	0.2706606584923916	-0.20490878467593787	540.45539851031	730.4250070830175	1031.1334159524017	62.05	9.733e-05	1.37e-05	4.846e-08	3.668e-08	4.762e-06	0.1936	0.0005452	1.114e-07	6.08e-06	0.5442	0.2615	0.0	0.0	0.0	19.31	9.181e-05	1.298e-05	4.591e-08	3.461e-08	4.492e-06	0.1901	0.0005173	8.472e-08	5.544e-06	0.5462	0.263	0.0	0.0	0.0	4.531	5.074e-05	7.503e-06	2.653e-08	1.912e-08	2.483e-06	0.1382	0.0002793	2.061e-07	2.097e-06	0.5785	0.2829	0.0	0.0	0.0
78	-1.110638892407184	-1.024561833342297	-0.874770203951248	154.3165427547587	789.4879026098	49.295356480905625	0.001412	0.1075	0.01204	4.261e-05	4.059e-05	0.005262	0.0	0.0224	0.001086	0.002066	0.7727	0.0768	0.0	0.0	0.0	0.2112	0.001488	0.0001798	6.359e-07	5.615e-07	7.283e-05	0.0	0.0007776	3.342e-05	0.0001262	0.7084	0.2889	0.0	0.0	0.0	273.7	3.46e-05	5.179e-06	1.832e-08	1.304e-08	1.693e-06	0.09856	0.0001855	2.32e-07	1.29e-06	0.4716	0.2313	0.1105	0.003355	0.08448
79	-0.7944408708686864	1.103943523006016	0.10685175298402694	683.8560856224383	817.8090430369517	1672.7724178867672	16.53	5.826e-05	8.524e-06	3.014e-08	2.195e-08	2.85e-06	0.1515	0.0003261	1.413e-07	2.636e-06	0.5701	0.2779	0.0	0.0	0.0	102.4	4.381e-05	6.551e-06	2.316e-08	1.651e-08	2.143e-06	0.1243	0.0002355	2.816e-07	1.649e-06	0.5874	0.288	0.0	0.0	0.0	136.8	4.011e-05	6.038e-06	2.135e-08	1.511e-08	1.963e-06	0.1163	0.0002121	3.276e-07	1.431e-06	0.5925	0.291	0.0	0.0	0.0
80	0.12899364531626056	-1.3801988585200777	0.8990616370955649	430.6232690072841	421.8923908037532	549.6426482957471	1.33	0.0001747	2.367e-05	8.371e-08	6.586e-08	8.548e-06	0.1865	0.0008285	1.333e-06	1.445e-05	0.5526	0.2599	0.0	0.0	0.0	16.19	0.000186	2.511e-05	8.881e-08	7.013e-08	9.102e-06	0.1797	0.000855	1.611e-06	1.574e-05	0.5576	0.2616	0.0	0.0	0.0	17.39	0.0001859	2.51e-05	8.877e-08	7.009e-08	9.096e-06	0.1798	0.0008547	1.609e-06	1.573e-05	0.5575	0.2616	0.0	0.0	0.0
81	-0.9107717827361915	1.1152067023225767	0.43520592529368995	300.0981414442591	685.6999830186643	235.70372617252724	0.5964	0.0005969	7.587e-05	2.683e-07	2.251e-07	2.921e-05	7.098e-05	0.0006896	1.336e-05	5.908e-05	0.6916	0.3069	0.0	0.0	0.0	14.0	0.0001228	1.702e-05	6.018e-08	4.631e-08	6.011e-06	0.2012	0.0006604	3.545e-07	8.703e-06	0.5404	0.2576	0.0	0.0	0.0	116.8	5.759e-05	8.43e-06	2.981e-08	2.17e-08	2.818e-06	0.1501	0.0003222	1.429e-07	2.597e-06	0.5672	0.2765	0.005805	0.0	0.0
82	-1.3495074022849252	0.4811785374154933	-0.1527786440295773	138.4836117549609	896.5421503410338	1392.2280706692686	0.0002779	0.3559	0.03904	0.0001382	0.0001344	0.01742	0.0	0.05862	0.002042	0.002457	0.46	0.06422	0.0	0.0	0.0	0.004475	0.5288	0.0572	0.0002025	0.0001997	0.02589	0.0	0.07465	0.002303	0.001868	0.273	0.03597	0.0	0.0	0.0	1.894	1.485e-05	2.267e-06	8.017e-09	5.594e-09	7.265e-07	0.04472	7.532e-05	1.898e-07	4.775e-07	0.2701	0.133	0.3897	0.004509	0.1579
83	0.23189041650021025	-0.9178760899545824	-1.3811309612588638	42.007990449836	387.7197933666744	351.3434127527833	0.006658	0.05322	0.004521	1.616e-05	2.036e-05	0.002641	0.0	0.001098	1.364e-05	0.0	3.861e-07	1.246e-07	0.9385	0.0	0.0	2.488e-05	0.0	0.3449	0.00162	0.00332	0.4295	0.0	0.2205	4.864e-05	0.0	2.327e-09	7.808e-10	0.0	0.0	0.0	1.997	1.932e-05	2.571e-06	9.091e-09	7.285e-09	9.454e-07	0.01032	7.418e-05	2.639e-07	1.783e-06	0.04633	0.0215	0.2941	0.5766	0.0511
84	0.6957544867947236	-0.11981383277136692	-0.10144324712016561	923.4579689466497	335.2470431173673	564.5988927344868	232.5	3.116e-05	4.779e-06	1.69e-08	1.174e-08	1.524e-06	0.09483	0.0001557	4.52e-07	9.739e-07	0.6057	0.2985	0.0	0.0	0.0008208	155.0	3.293e-05	5.031e-06	1.779e-08	1.24e-08	1.611e-06	0.09929	0.0001668	4.266e-07	1.056e-06	0.6029	0.2969	0.0	0.0	0.0006111	0.008694	0.0004282	5.553e-05	1.964e-07	1.615e-07	2.095e-05	0.0007952	0.000783	9.331e-06	4.297e-05	0.6865	0.3114	0.0	0.0	0.0
85	0.8731678150566329	0.38458349749535925	0.0594976069193347	401.2282977634091	158.7691588308966	13.722366125979548	256.1	8.6e-06	1.151e-06	4.071e-09	3.243e-09	4.208e-07	0.006126	3.596e-05	9.871e-08	7.675e-07	0.0226	0.01054	0.0	0.0	0.9607	5.472	0.0005539	7.071e-05	2.501e-07	2.089e-07	2.71e-05	0.00012	0.0006987	1.233e-05	5.51e-05	0.6905	0.308	0.0	0.0	0.0	0.00215	0.05166	0.005816	2.058e-05	1.95e-05	0.002528	0.0	0.01146	0.0006768	0.001443	0.873	0.05341	0.0	0.0	0.0
86	0.32892069732093643	0.8501088496247511	1.44513531224549	986.9555524945705	29.10752521172798	1255.1116550374218	214.7	2.398e-05	3.715e-06	1.314e-08	9.031e-09	1.173e-06	0.07452	0.0001157	4.549e-07	7.12e-07	0.541	0.2671	0.09852	0.01488	0.003912	0.0003141	0.8501	0.06441	0.0002408	0.0003791	0.04937	0.0	0.03545	4.03e-05	0.0	3.719e-08	1.241e-08	0.0	0.0	0.0	4.627e-05	0.8691	0.06822	0.0002467	0.0003416	0.04437	0.0	0.01759	0.0001015	0.0	5.947e-07	1.962e-07	0.0	0.0	0.0
87	-1.3467904854204895	-0.18494761949793603	0.11267246012237897	174.3164825849466	380.7514945304534	200.40650062597396	0.02183	0.006881	0.0007884	2.79e-06	2.597e-06	0.0003368	0.0	0.001881	0.000133	0.0003645	0.9584	0.03125	0.0	0.0	0.0	0.3296	0.008856	0.001009	3.571e-06	3.343e-06	0.0004334	0.0	0.002274	0.0001663	0.0004321	0.9629	0.02393	0.0	0.0	0.0	0.2863	9.9e-05	1.313e-05	4.644e-08	3.733e-08	4.844e-06	0.04354	0.0003601	1.474e-06	9.291e-06	0.2261	0.1046	0.4626	0.01241	0.1502
88	0.23249389405721788	-0.05378994966726647	-0.2520134567052217	19.20070202174079	946.1875312705381	1405.2080300326193	0.0005537	0.853	0.06439	0.0002399	0.0003738	0.04866	0.0	0.03332	4.307e-05	0.0	4.549e-08	1.517e-08	0.0	0.0	0.0	3.257e-05	0.8527	0.06439	0.0002399	0.0003743	0.04874	0.0	0.03356	4.274e-05	0.0	4.445e-08	1.482e-08	0.0	0.0	0.0	0.3024	1.94e-06	2.987e-07	1.056e-09	7.307e-10	9.49e-08	0.005952	9.575e-06	3.118e-08	5.938e-08	0.03983	0.01964	0.007072	0.1277	0.7998
89	0.6955332430595558	0.5720306256743939	0.8516174649647907	35.857133523888045	224.93962312387092	1848.1571676668225	0.0004286	0.8682	0.07118	0.0002554	0.0003349	0.04346	0.0	0.0164	0.0001579	0.0	2.247e-06	7.34e-07	0.0	0.0	0.0	0.0004229	0.8675	0.06672	0.0002427	0.0003468	0.04507	0.0	0.02006	7.972e-05	0.0	2.885e-07	9.557e-08	0.0	0.0	0.0	0.1983	0.0008465	0.000102	3.607e-07	3.194e-07	4.143e-05	0.0	0.0004251	1.894e-05	7.063e-05	0.381	0.1539	0.00973	0.4107	0.04309
90	0.9395269074063046	-1.4002792319895705	0.4545488130989779	941.6377950772985	674.8572427546209	1914.1844066714996	4.247	2.995e-05	4.607e-06	1.629e-08	1.128e-08	1.465e-06	0.09174	0.0001482	4.72e-07	9.203e-07	0.6082	0.2999	0.0	0.0	0.0	36.16	5.889e-05	8.609e-06	3.044e-08	2.219e-08	2.881e-06	0.1525	0.00033	1.367e-07	2.684e-06	0.5695	0.2776	0.0	0.0	0.0	123.0	5.991e-05	8.747e-06	3.093e-08	2.257e-08	2.931e-06	0.1542	0.0003362	1.296e-07	2.761e-06	0.5685	0.2769	0.0	0.0	0.0
91	-1.1131145295455778	1.4259526261826183	1.4196197395900119	484.45554085492944	939.304594999546	1777.4980564288348	0.2333	0.0001266	1.75e-05	6.189e-08	4.773e-08	6.195e-06	0.2014	0.0006754	4.055e-07	9.104e-06	0.5405	0.2573	0.0	0.0	0.0	42.02	2.757e-05	4.267e-06	1.509e-08	1.038e-08	1.349e-06	0.0855	0.0001335	5.089e-07	8.224e-07	0.6122	0.3022	2.008e-05	0.0	0.0	381.6	3.01e-05	4.629e-06	1.637e-08	1.134e-08	1.473e-06	0.09214	0.0001491	4.696e-07	9.27e-07	0.6079	0.2997	0.0	0.0	0.0
92	-1.469738928945979	-1.1695199423492675	-0.0022843254488529308	412.73504552729236	835.1829893097182	88.38214551071485	0.04955	0.0001992	2.68e-05	9.477e-08	7.512e-08	9.748e-06	0.1708	0.000882	1.958e-06	1.726e-05	0.5641	0.264	0.0	0.0	0.0	169.3	5.707e-05	8.363e-06	2.957e-08	2.15e-08	2.792e-06	0.1495	0.0003188	1.503e-07	2.548e-06	0.5714	0.2787	0.0	0.0	0.0	12.48	8.311e-06	1.255e-06	4.438e-09	3.131e-09	4.066e-07	0.02432	4.355e-05	7.577e-08	2.89e-07	0.1288	0.06328	0.7836	0.0	0.0
94	-1.2146168582421302	0.1572502816609178	-1.4853171728775378	427.9619559395594	300.10865260325386	431.2432709260001	4.695	0.0001655	2.24e-05	7.922e-08	6.24e-08	8.098e-06	0.1717	0.0007779	1.312e-06	1.379e-05	0.5151	0.2421	0.05921	0.01086	0.0	4.044e-05	0.8196	0.08227	0.0002916	0.0003099	0.04016	0.0	0.05405	0.001211	0.0	0.001736	0.0003737	0.0	0.0	0.0	7.102	0.0005946	7.557e-05	2.673e-07	2.243e-07	2.909e-05	7.076e-05	0.000687	1.33e-05	5.885e-05	0.6889	0.3058	0.0	0.0	0.00379
95	1.450805861486729	1.4987287474343538	0.19472750144199646	673.4174073400698	108.34723391796233	1841.783840254834	0.01981	3.585e-05	5.233e-06	1.85e-08	1.351e-08	1.754e-06	0.09211	0.0002013	7.612e-08	1.657e-06	0.3385	0.1649	0.1968	1.627e-06	0.2074	0.002771	0.767	0.08009	0.0002837	0.0002898	0.03756	0.0	0.07465	0.001905	0.0002838	0.03486	0.003129	0.0	0.0	0.0	1.577e-05	0.7645	0.0799	0.000283	0.0002888	0.03744	0.0	0.07504	0.001921	0.0003039	0.03697	0.003332	0.0	0.0	0.0
97	-0.08364325786105398	-1.2799791836987275	0.2017804225876325	691.9426928830954	785.7510101086447	149.17162928850226	14.05	5.683e-05	8.331e-06	2.946e-08	2.142e-08	2.781e-06	0.1491	0.0003173	1.522e-07	2.53e-06	0.5716	0.2788	0.0	0.0	0.0	18.43	4.393e-05	6.567e-06	2.322e-08	1.655e-08	2.149e-06	0.1246	0.0002363	2.802e-07	1.656e-06	0.5872	0.2879	0.0	0.0	0.0	210.7	4.359e-05	6.52e-06	2.305e-08	1.642e-08	2.132e-06	0.1239	0.0002341	2.843e-07	1.635e-06	0.5877	0.2882	0.0	0.0	0.0
98	1.4877439915515573	1.475987166809189	-0.78490130869438	273.9685614368899	784.0974563256676	1534.243120222046	0.0003519	0.0007957	9.946e-05	3.518e-07	3.002e-07	3.894e-05	4.764e-06	0.0006852	1.804e-05	7.645e-05	0.6959	0.3024	0.0	0.0	0.0	102.2	4.427e-05	6.614e-06	2.339e-08	1.668e-08	2.166e-06	0.1253	0.0002384	2.761e-07	1.677e-06	0.5867	0.2876	2.357e-05	0.0	0.0	144.4	4.378e-05	6.546e-06	2.315e-08	1.649e-08	2.142e-06	0.1243	0.0002353	2.82e-07	1.647e-06	0.5874	0.288	1.91e-05	0.0	0.0
99	-0.6186554798801964	0.1078306030716163	-1.2379702376886028	420.8552140367449	407.4902397613278	1381.671202929736	22.62	0.0001873	2.528e-05	8.941e-08	7.063e-08	9.166e-06	0.1789	0.0008579	1.645e-06	1.589e-05	0.5582	0.2618	0.0	0.0	0.0	7.799	8.098e-05	1.156e-05	4.087e-08	3.052e-08	3.962e-06	0.1811	0.000459	6.119e-08	4.532e-06	0.5517	0.2666	0.0	0.0	0.0	8.172	0.0002077	2.788e-05	9.858e-08	7.832e-08	1.016e-05	0.1645	0.0008973	2.193e-06	1.824e-05	0.5686	0.2657	0.0	0.0	0.0
0	-0.8857448498927307	1.3641204500853403	0.8502843484019236	395.53964022938976	77.27210218764431	907.9949677000369	0.6386	0.000162	2.163e-05	7.65e-08	6.109e-08	7.927e-06	0.1034	0.0006553	2.003e-06	1.467e-05	0.4098	0.1907	0.02135	0.001967	0.2718	5.447e-06	0.7876	0.08153	0.0002888	0.0002976	0.03857	0.0	0.07016	0.001731	0.0001201	0.01808	0.001655	0.0	0.0	0.0	0.001928	0.8341	0.08123	0.0002882	0.0003156	0.04091	0.0	0.04173	0.0008633	0.0	0.0004533	0.0001255	0.0	0.0	0.0
1	1.2539019454261644	1.4108973727895844	-1.0390298268946838	393.49005534445877	984.5892276160477	255.02365816251864	0.06426	0.0002341	3.123e-05	1.104e-07	8.827e-08	1.146e-05	0.1431	0.0009348	2.972e-06	2.13e-05	0.5841	0.2716	0.0	0.0	0.0	17.92	3.206e-05	4.9e-06	1.733e-08	1.208e-08	1.568e-06	0.0968	0.000162	4.233e-07	1.023e-06	0.5927	0.2919	0.01837	0.0	0.0	458.9	2.728e-05	4.226e-06	1.494e-08	1.027e-08	1.335e-06	0.08473	0.0001318	5.128e-07	8.113e-07	0.6122	0.3022	0.0006764	0.0	0.0
2	-1.165442810682887	-0.14098342025259303	1.3692248662258715	890.0043791170605	701.0506806581432	1076.253867722294	54.76	3.366e-05	5.134e-06	1.815e-08	1.268e-08	1.647e-06	0.1011	0.0001713	4.164e-07	1.09e-06	0.6022	0.2965	1.468e-05	0.0	0.0	0.0671	0.00292	0.0003421	1.21e-06	1.102e-06	0.0001429	0.0	0.001037	6.167e-05	0.0001999	0.7545	0.2408	0.0	0.0	0.0	141.4	5.529e-05	8.122e-06	2.872e-08	2.083e-08	2.705e-06	0.1465	0.0003077	1.646e-07	2.418e-06	0.5733	0.2798	0.0	0.0	8.878e-05
3	1.3079168816821714	0.5379731946410913	-0.778327268219124	927.9825037756674	925.624042659051	88.08894316075411	20.21	3.087e-05	4.738e-06	1.675e-08	1.163e-08	1.51e-06	0.0941	0.0001539	4.577e-07	9.606e-07	0.6067	0.299	0.0	0.0	0.0	142.8	3.093e-05	4.748e-06	1.679e-08	1.165e-08	1.513e-06	0.09428	0.0001543	4.566e-07	9.637e-07	0.6066	0.299	0.0	0.0	0.0	240.6	3.103e-05	4.761e-06	1.684e-08	1.169e-08	1.518e-06	0.09452	0.0001549	4.549e-07	9.679e-07	0.6064	0.2989	0.0	0.0	0.0
4	1.2816713720420583	0.7525642599001241	-0.22624583136473309	698.0440603746302	651.0057318623553	305.0734519497774	7.648	5.579e-05	8.191e-06	2.896e-08	2.102e-08	2.73e-06	0.1474	0.0003109	1.605e-07	2.454e-06	0.5728	0.2795	0.0	0.0	0.0	122.9	6.122e-05	8.924e-06	3.156e-08	2.307e-08	2.995e-06	0.1563	0.0003443	1.209e-07	2.862e-06	0.5672	0.2762	0.0	0.0	0.0	23.57	6.465e-05	9.385e-06	3.319e-08	2.436e-08	3.163e-06	0.1614	0.0003651	1.01e-07	3.133e-06	0.5639	0.2742	0.0	0.0	0.0
5	1.1674925180417595	-1.5215060423758557	-0.2155276647516231	764.3584422463865	39.49148867574824	877.6937078314563	0.1254	3.171e-05	4.723e-06	1.67e-08	1.195e-08	1.551e-06	0.08877	0.000172	1.747e-07	1.233e-06	0.4014	0.1966	0.2143	0.001778	0.09692	0.001077	0.8664	0.07262	0.0002599	0.0003324	0.04312	0.0	0.01711	0.0001951	0.0	4.26e-06	1.382e-06	0.0	0.0	0.0	3.862e-05	0.8664	0.07258	0.0002598	0.0003324	0.04312	0.0	0.01708	0.0001941	0.0	4.195e-06	1.361e-06	0.0	0.0	0.0
6	1.5620756636601145	1.2070649217342937	0.47054904040316803	622.9949560536609	20.60572575473539	1869.72901372559	0.08826	9.767e-07	1.408e-07	4.978e-10	3.681e-10	4.779e-08	0.002338	5.536e-06	1.025e-09	5.031e-08	0.00768	0.003726	0.06247	0.2728	0.651	0.0005052	0.8579	0.06459	0.000239	0.0003648	0.04747	0.0	0.02939	4.944e-05	0.0	6.898e-08	2.298e-08	0.0	0.0	0.0	0.0001257	0.858	0.06459	0.000239	0.0003646	0.04745	0.0	0.02931	4.959e-05	0.0	6.961e-08	2.318e-08	0.0	0.0	0.0
7	1.3086717156288312	-1.2823847062584357	-1.0786735088247073	681.0810865164234	338.04072772150806	747.9427234210988	1.034	5.069e-05	7.412e-06	2.621e-08	1.91e-08	2.48e-06	0.1314	0.000284	1.188e-07	2.307e-06	0.4914	0.2395	0.08041	0.007721	0.04911	5.541	0.000438	5.672e-05	2.006e-07	1.652e-07	2.143e-05	0.0006499	0.0007697	9.565e-06	4.395e-05	0.6869	0.3111	0.0	0.0	0.0	6.949	0.0004179	5.427e-05	1.919e-07	1.576e-07	2.045e-05	0.001012	0.0007996	9.087e-06	4.194e-05	0.686	0.3116	0.0	0.0	0.0
8	0.8642763808709466	0.024359283726295367	-0.44343882639666155	460.52867743613336	734.4724576113376	477.64214893928585	20.29	0.0001445	1.98e-05	7.003e-08	5.447e-08	7.069e-06	0.199	0.0007405	6.947e-07	1.105e-05	0.5429	0.2572	0.0	0.0	0.0	17.73	0.0001725	2.339e-05	8.27e-08	6.502e-08	8.439e-06	0.1877	0.0008228	1.28e-06	1.42e-05	0.5517	0.2596	0.0	0.0	0.0	23.79	5.016e-05	7.423e-06	2.625e-08	1.89e-08	2.454e-06	0.1371	0.0002756	2.119e-07	2.058e-06	0.5792	0.2833	0.0	0.0	0.0
9	0.8872147053673305	1.3228665665132726	-0.9264223224256402	504.4701760301294	62.026209908315636	1589.5928745251515	2.093	8.617e-05	1.199e-05	4.241e-08	3.248e-08	4.216e-06	0.1506	0.0004705	1.917e-07	5.888e-06	0.4068	0.1944	0.008543	0.0001814	0.2389	6.533e-07	0.8653	0.07326	0.0002619	0.0003313	0.04297	0.0	0.01764	0.0002146	0.0	5.685e-06	1.837e-06	0.0	0.0	0.0	0.001582	0.8494	0.07884	0.0002802	0.0003221	0.04175	0.0	0.02874	0.0005221	0.0	8.774e-05	2.663e-05	0.0	0.0	0.0
10	0.42862813373909225	-0.1752948047866698	0.15710633602050628	643.8057040114935	552.2044085544254	162.08643846687613	111.5	6.62e-05	9.593e-06	3.392e-08	2.495e-08	3.239e-06	0.1636	0.0003743	9.329e-08	3.258e-06	0.5625	0.2734	0.0	0.0	0.0	21.19	6.507e-05	9.441e-06	3.339e-08	2.452e-08	3.184e-06	0.162	0.0003676	9.882e-08	3.166e-06	0.5635	0.274	0.0	0.0	0.0	4.295	9.266e-05	1.309e-05	4.63e-08	3.492e-08	4.534e-06	0.1907	0.0005217	8.819e-08	5.626e-06	0.5459	0.2628	0.0	0.0	0.0
11	1.0423147114724478	0.6808752388288526	-0.12128891784565532	721.5794673496724	122.0040439760461	242.38810260644138	64.55	2.409e-05	3.555e-06	1.257e-08	9.078e-09	1.179e-06	0.06511	0.0001331	8.96e-08	1.012e-06	0.2671	0.1305	0.2063	0.007006	0.3238	0.4466	0.004896	0.0005659	2.002e-06	1.848e-06	0.0002396	0.0	0.001478	9.846e-05	0.0002901	0.9006	0.09181	0.0	0.0	0.0	0.000654	0.635	0.06795	0.0002406	0.0002398	0.03109	0.0	0.07986	0.002296	0.001276	0.1628	0.01929	0.0	0.0	0.0
13	-1.2569631540051975	0.3320028157227153	1.260504269044496	387.2599587348002	399.84492185428036	307.7633582762311	2.072	0.000248	3.299e-05	1.167e-07	9.351e-08	1.213e-05	0.1309	0.000949	3.407e-06	2.291e-05	0.5928	0.2751	0.0	0.0	0.0	0.6568	0.000328	4.309e-05	1.524e-07	1.237e-07	1.605e-05	0.05592	0.000962	6.144e-06	3.216e-05	0.646	0.2966	0.0	0.0	0.0	24.53	0.0002214	2.961e-05	1.047e-07	8.347e-08	1.083e-05	0.1538	0.0009185	2.588e-06	1.983e-05	0.5764	0.2686	0.0	0.0	0.0
14	1.024870706955722	0.4282130269063611	-0.09050412638153382	639.67511767231	191.92871574364924	118.39979001528296	64.73	3.156e-05	4.568e-06	1.615e-08	1.189e-08	1.544e-06	0.07753	0.0001786	4.19e-08	1.567e-06	0.2641	0.1283	0.0	4.063e-05	0.5297	13.69	0.0002939	3.879e-05	1.372e-07	1.108e-07	1.438e-05	0.0883	0.0009705	4.938e-06	2.823e-05	0.6231	0.2873	0.0	0.0	0.0	0.09021	0.003216	0.0003756	1.329e-06	1.214e-06	0.0001574	0.0	0.001098	6.723e-05	0.0002133	0.7706	0.2242	0.0	0.0	0.0
15	0.10274970766884728	-1.0697496360572636	1.5430566574565687	725.445018955405	140.06508105970772	372.40381352605414	54.53	4.26e-05	6.293e-06	2.225e-08	1.605e-08	2.084e-06	0.1155	0.000235	1.647e-07	1.777e-06	0.4782	0.2337	0.1647	0.005953	0.00162	0.003256	0.5644	0.06085	0.0002154	0.0002132	0.02763	0.0	0.0769	0.002318	0.001689	0.2356	0.03019	0.0	0.0	0.0	0.0001293	0.3276	0.03602	0.0001275	0.0001237	0.01604	0.0	0.0553	0.001972	0.002505	0.4918	0.06848	0.0	0.0	0.0
16	-0.9850422549378687	1.1735328915151695	1.40194624963249	922.5675935476119	392.25785430833656	1013.9431864274679	23.74	2.401e-05	3.683e-06	1.302e-08	9.046e-09	1.175e-06	0.07307	0.0001201	3.469e-07	7.513e-07	0.4658	0.2296	0.001382	0.0818	0.1482	2.275	0.0003285	4.315e-05	1.526e-07	1.239e-07	1.607e-05	0.05551	0.0009618	6.159e-06	3.221e-05	0.6463	0.2968	0.0	0.0	0.0	21.19	0.0002367	3.156e-05	1.116e-07	8.926e-08	1.158e-05	0.1408	0.0009378	3.053e-06	2.161e-05	0.5857	0.2723	0.0	0.0	0.0
17	-0.7649964582936645	-0.11526798076025413	-0.1089177080390058	772.5754959461741	176.51108747348752	762.4708582579087	122.1	4.514e-05	6.734e-06	2.381e-08	1.701e-08	2.208e-06	0.1271	0.0002439	2.659e-07	1.731e-06	0.5855	0.2869	0.0	0.0	0.0002019	109.0	4.534e-05	6.762e-06	2.391e-08	1.708e-08	2.218e-06	0.1275	0.0002452	2.635e-07	1.744e-06	0.5852	0.2868	0.0	0.0	0.000202	0.01267	0.006251	0.000718	2.54e-06	2.359e-06	0.0003059	0.0	0.001758	0.0001223	0.0003427	0.9524	0.03808	0.0	0.0	0.0
18	0.5648416883531389	-0.1030808003458461	-1.5044272703479147	66.55484917223916	604.8102010098888	238.31484453426793	0.08005	0.01284	0.001211	4.3e-06	4.866e-06	0.0006308	0.0	0.0004896	9.303e-06	0.0	2.213e-06	6.577e-07	0.9848	0.0	0.0	6.014e-09	0.0	0.0	0.01969	0.1861	0.0	0.0	0.7942	1.879e-06	0.0	1.664e-13	5.592e-14	0.0	0.0	0.0	58.75	4.151e-05	5.954e-06	2.105e-08	1.564e-08	2.031e-06	0.09625	0.0002354	3.512e-08	2.227e-06	0.3043	0.1473	0.01345	0.02463	0.4138
19	0.8211350267901967	-1.1251273839853932	-0.7022255922078613	428.6779928030601	342.0712932157648	1805.7434417320865	3.196	0.0001771	2.397e-05	8.479e-08	6.676e-08	8.665e-06	0.1851	0.0008343	1.39e-06	1.472e-05	0.5536	0.2602	0.0	0.0	0.0	35.2	0.0001717	2.329e-05	8.237e-08	6.474e-08	8.402e-06	0.1881	0.0008209	1.263e-06	1.411e-05	0.5514	0.2595	0.0	0.0	0.0	0.0001552	0.0004036	5.253e-05	1.858e-07	1.522e-07	1.975e-05	0.001567	0.00083	8.75e-06	4.05e-05	0.6852	0.3119	0.0	0.0	0.0
20	0.8022999438112777	1.123779047202155	0.3985109678169496	381.73814615687616	817.2606434927815	1899.6071380407948	2.057	0.0002616	3.471e-05	1.228e-07	9.865e-08	1.28e-05	0.1186	0.0009593	3.848e-06	2.45e-05	0.6016	0.2786	0.0	0.0	0.0	85.73	8.135e-05	1.161e-05	4.104e-08	3.066e-08	3.981e-06	0.1815	0.000461	6.135e-08	4.566e-06	0.5515	0.2665	0.0	0.0	0.0	25.17	3.988e-05	6.002e-06	2.122e-08	1.502e-08	1.951e-06	0.1156	0.0002109	3.245e-07	1.423e-06	0.5881	0.2888	0.007262	0.0	0.0
22	-1.4152459367268342	-0.3273293226937224	-0.18346536942481695	733.0838341445161	189.16890193792938	1057.6388535236817	6.545	3.376e-05	4.995e-06	1.766e-08	1.272e-08	1.652e-06	0.09217	0.0001856	1.407e-07	1.388e-06	0.3881	0.1898	0.1663	0.05969	0.1036	8.851	0.0005286	6.768e-05	2.394e-07	1.994e-07	2.587e-05	0.000165	0.0007067	1.173e-05	5.273e-05	0.6898	0.3087	0.0	0.0	0.0	0.05009	0.003528	0.0004109	1.454e-06	1.332e-06	0.0001727	0.0	0.001164	7.305e-05	0.0002274	0.7904	0.2041	0.0	0.0	0.0
24	-0.2205243098686973	-1.139879450562415	-1.3858491161047084	230.3268690027606	269.5895034083176	1509.6932395713925	0.4535	0.001445	0.0001748	6.183e-07	5.451e-07	7.07e-05	0.0	0.0007706	3.249e-05	0.0001234	0.7076	0.2898	0.0	0.0	0.0	4.048	0.0007792	9.751e-05	3.449e-07	2.939e-07	3.813e-05	6.283e-06	0.0006843	1.766e-05	7.506e-05	0.6956	0.3027	0.0	0.0	0.0	0.7637	0.0008386	0.0001045	3.696e-07	3.163e-07	4.104e-05	2.105e-06	0.0006882	1.904e-05	7.998e-05	0.6967	0.3015	0.0	0.0	0.0
0	-1.4750582427505021	0.7802523590802206	0.4439439588418188	399.83249707535776	452.96675144496095	1398.0598044729777	0.1291	0.0002214	2.962e-05	1.047e-07	8.348e-08	1.083e-05	0.1537	0.0009185	2.588e-06	1.983e-05	0.5764	0.2686	0.0	0.0	0.0	32.01	0.0001598	2.176e-05	7.695e-08	6.023e-08	7.817e-06	0.1938	0.0007882	9.959e-07	1.276e-05	0.547	0.2582	0.0	0.0	0.0	10.83	0.0001511	2.066e-05	7.305e-08	5.698e-08	7.395e-06	0.1971	0.0007621	8.204e-07	1.179e-05	0.5445	0.2575	0.0	0.0	0.0
1	-0.7901041040812432	0.05367400949465795	-0.020267985669800925	140.41092663392695	329.4929860143743	518.4256454658243	0.004059	0.3215	0.03536	0.0001252	0.0001214	0.01574	0.0	0.05456	0.001956	0.002513	0.4987	0.06937	0.0	0.0	0.0	0.004191	0.319	0.0351	0.0001242	0.0001205	0.01562	0.0	0.05425	0.001949	0.002516	0.5016	0.06973	0.0	0.0	0.0	0.01076	0.0002676	3.459e-05	1.223e-07	1.009e-07	1.309e-05	0.0003064	0.0004488	5.857e-06	2.683e-05	0.4082	0.1846	0.008379	0.3874	0.01041
2	0.12530689720610466	0.9047266014471851	0.7326520862521226	482.74500460905614	701.6534965767579	327.61994274159133	21.3	0.0001277	1.765e-05	6.242e-08	4.816e-08	6.251e-06	0.2013	0.0006799	4.217e-07	9.227e-06	0.5405	0.2573	0.0	0.0	0.0	56.75	6.264e-05	9.115e-06	3.223e-08	2.36e-08	3.065e-06	0.1584	0.0003529	1.122e-07	2.973e-06	0.5658	0.2754	0.0	0.0	0.0	44.16	5.519e-05	8.109e-06	2.868e-08	2.08e-08	2.7e-06	0.1463	0.0003071	1.655e-07	2.411e-06	0.5734	0.2799	0.0	0.0	0.0
